<?xml version="1.0" encoding="utf-8"?>
<!-- Generator: Adobe Illustrator 17.1.0, SVG Export Plug-In . SVG Version: 6.00 Build 0)  -->
<!DOCTYPE svg PUBLIC "-//W3C//DTD SVG 1.1//EN" "http://www.w3.org/Graphics/SVG/1.1/DTD/svg11.dtd">
<svg version="1.1" id="Layer_1" xmlns="http://www.w3.org/2000/svg" xmlns:xlink="http://www.w3.org/1999/xlink" x="0px" y="0px"
	 viewBox="0 0 612 792" enable-background="new 0 0 612 792" xml:space="preserve">
<path fill="#FF6600" d="M577.1,197.7c7.5,7.5,13.7,17.1,18.5,29.4c5.5,12.3,7.5,23.9,7.5,34.2v447.2c0,10.3-3.4,19.1-10.9,26.7
	c-7.5,7.5-15.7,10.9-26.7,10.9H44.4c-10.3,0-19.1-3.4-26.7-10.9c-6.8-7.5-10.9-16.4-10.9-26.7V86.9c0-10.3,3.4-19.1,10.9-26.7
	C25.3,53.4,34.2,50,44.4,50h348.1c10.3,0,21.9,2.7,34.2,7.5C439,63,449.3,69.1,456.1,76L577.1,197.7z M553.9,695.5V298.2H391.8
	c-10.3,0-19.1-3.4-26.7-10.9c-7.5-7.5-10.9-15.7-10.9-26.7V99.2H56.8v596.3H553.9L553.9,695.5z M404.8,102.7v145.6h145.6
	c-2.7-7.5-5.5-13-8.2-15.7L420.5,110.9C417.1,108.1,412.3,105.4,404.8,102.7"/>
<g opacity="0.81">
	<g>
		<g>
			<g>
				<g>
					<defs>
						<rect id="SVGID_1_" x="251.6" y="357.7" width="258.5" height="43.1"/>
					</defs>
					<clipPath id="SVGID_2_">
						<use xlink:href="#SVGID_1_"  overflow="visible"/>
					</clipPath>
					<path clip-path="url(#SVGID_2_)" fill="#FF6600" d="M510.1,368.6v21.2c0,2.7-1.4,5.5-3.4,7.5c-2.1,2.1-4.8,3.4-7.5,3.4H262.6
						c-2.7,0-5.5-1.4-7.5-3.4s-3.4-4.8-3.4-7.5v-21.2c0-2.7,1.4-5.5,3.4-7.5s4.8-3.4,7.5-3.4h236.6c2.7,0,5.5,1.4,7.5,3.4
						S510.1,365.9,510.1,368.6"/>
				</g>
			</g>
		</g>
	</g>
</g>
<path fill="#008AB5" d="M151.1,508.9c2.1,1.4,4.8,2.1,7.5,2.1s4.8-0.7,7.5-2.1c2.1-1.4,4.1-3.4,5.5-5.5s2.1-4.8,2.1-7.5
	s-0.7-4.8-2.1-7.5c-1.4-2.1-3.4-4.1-5.5-5.5s-4.8-2.1-7.5-2.1s-4.8,0.7-7.5,2.1s-4.1,3.4-5.5,5.5s-2.1,4.8-2.1,7.5s0.7,4.8,2.1,7.5
	C147,505.5,149.1,507.5,151.1,508.9"/>
<path fill="#FF6600" d="M194.2,359.1c-3.4-6.2-8.9-11.6-15-15c-12.3-7.5-28.7-7.5-41.7,0c-6.2,3.4-11.6,8.9-15,15
	c-3.4,6.2-5.5,13-5.5,20.5s2.1,14.4,5.5,20.5c3.4,6.2,8.9,11.6,15,15c6.2,3.4,13,5.5,20.5,5.5s14.4-2.1,20.5-5.5
	c6.2-3.4,11.6-8.9,15-15c3.4-6.2,5.5-13,5.5-20.5C199.7,372.8,197.6,365.9,194.2,359.1 M158.6,354.3c3.4,0,6.8,0.7,9.6,2.1
	c3.4,1.4,5.5,3.4,8.2,5.5c2.1,2.1,3.4,4.1,4.8,7.5c1.4,4.1,2.1,7.5,2.1,10.3c0,3.4-0.7,6.8-2.1,9.6c-1.4,3.4-3.4,6.2-5.5,8.2
	s-4.8,4.1-8.2,5.5c-6.2,2.7-13.7,2.7-19.8,0c-3.4-1.4-6.2-3.4-8.2-5.5c-2.1-2.1-4.1-4.8-5.5-8.2c-1.4-3.4-2.1-6.2-2.1-9.6
	s0.7-6.8,2.1-9.6c1.4-3.4,3.4-6.2,5.5-8.2s4.8-4.1,8.2-5.5C151.8,355,155.2,354.3,158.6,354.3"/>
<g opacity="0.81">
	<g>
		<g>
			<g>
				<g>
					<defs>
						<rect id="SVGID_3_" x="251.6" y="474" width="258.5" height="43.1"/>
					</defs>
					<clipPath id="SVGID_4_">
						<use xlink:href="#SVGID_3_"  overflow="visible"/>
					</clipPath>
					<path clip-path="url(#SVGID_4_)" fill="#FF6600" d="M510.1,484.9v21.2c0,2.7-1.4,5.5-3.4,7.5c-2.1,2.1-4.8,3.4-7.5,3.4H262.6
						c-2.7,0-5.5-1.4-7.5-3.4c-2.1-2.1-3.4-4.8-3.4-7.5v-21.2c0-2.7,1.4-5.5,3.4-7.5c2.1-2.1,4.8-3.4,7.5-3.4h236.6
						c2.7,0,5.5,1.4,7.5,3.4C508.7,479.4,510.1,481.5,510.1,484.9"/>
				</g>
			</g>
		</g>
	</g>
</g>
<path fill="#008AB5" d="M194.2,475.3c-3.4-6.2-8.9-11.6-15-15c-12.3-7.5-28.7-7.5-41.7,0c-6.2,3.4-11.6,8.9-15,15
	c-3.4,6.2-5.5,13-5.5,20.5s2.1,14.4,5.5,20.5c3.4,6.2,8.9,11.6,15,15c6.2,3.4,13,5.5,20.5,5.5s14.4-2.1,20.5-5.5s11.6-8.9,15-15
	s5.5-13,5.5-20.5C199.7,488.3,197.6,481.5,194.2,475.3 M158.6,470.5c3.4,0,6.8,0.7,9.6,2.1c3.4,1.4,5.5,3.4,8.2,5.5
	c2.1,2.1,3.4,4.1,4.8,7.5c1.4,4.1,2.1,7.5,2.1,10.3c0,3.4-0.7,6.8-2.1,9.6c-1.4,3.4-3.4,6.2-5.5,8.2s-4.8,4.1-8.2,5.5
	c-6.2,2.7-13.7,2.7-19.8,0c-3.4-1.4-6.2-3.4-8.2-5.5c-2.1-2.1-4.1-4.8-5.5-8.2c-1.4-3.4-2.1-6.2-2.1-9.6s0.7-6.8,2.1-9.6
	c1.4-3.4,3.4-6.2,5.5-8.2s4.8-4.1,8.2-5.5C151.8,471.2,155.2,470.5,158.6,470.5"/>
<g opacity="0.81">
	<g>
		<g>
			<g>
				<g>
					<defs>
						<rect id="SVGID_5_" x="251.6" y="589.5" width="258.5" height="43.1"/>
					</defs>
					<clipPath id="SVGID_6_">
						<use xlink:href="#SVGID_5_"  overflow="visible"/>
					</clipPath>
					<path clip-path="url(#SVGID_6_)" fill="#FF6600" d="M510.1,600.5v21.2c0,2.7-1.4,5.5-3.4,7.5c-2.1,2.1-4.8,3.4-7.5,3.4H262.6
						c-2.7,0-5.5-1.4-7.5-3.4c-2.1-2.1-3.4-4.8-3.4-7.5v-21.2c0-2.7,1.4-5.5,3.4-7.5s4.8-3.4,7.5-3.4h236.6c2.7,0,5.5,1.4,7.5,3.4
						S510.1,597.7,510.1,600.5"/>
				</g>
			</g>
		</g>
	</g>
</g>
<path fill="#FF6600" d="M194.2,590.9c-3.4-6.2-8.9-11.6-15-15c-12.3-7.5-28.7-7.5-41.7,0c-6.2,3.4-11.6,8.9-15,15
	c-3.4,6.2-5.5,13-5.5,20.5s2.1,14.4,5.5,20.5c3.4,6.2,8.9,11.6,15,15c6.2,3.4,13,5.5,20.5,5.5s14.4-2.1,20.5-5.5s11.6-8.9,15-15
	s5.5-13,5.5-20.5C199.7,604.6,197.6,597.7,194.2,590.9 M158.6,586.1c3.4,0,6.8,0.7,9.6,2.1c3.4,1.4,5.5,3.4,8.2,5.5
	c2.1,2.1,3.4,4.1,4.8,7.5c1.4,4.1,2.1,7.5,2.1,10.3c0,3.4-0.7,6.8-2.1,9.6c-1.4,3.4-3.4,6.2-5.5,8.2s-4.8,4.1-8.2,5.5
	c-6.2,2.7-13.7,2.7-19.8,0c-3.4-1.4-6.2-3.4-8.2-5.5c-2.1-2.1-4.1-4.8-5.5-8.2s-2.1-6.2-2.1-9.6c0-3.4,0.7-6.8,2.1-9.6
	c1.4-3.4,3.4-6.2,5.5-8.2s4.8-4.1,8.2-5.5S155.2,586.1,158.6,586.1"/>
</svg>
