<?xml version="1.0" encoding="utf-8"?>
<!-- Generator: Adobe Illustrator 17.1.0, SVG Export Plug-In . SVG Version: 6.00 Build 0)  -->
<!DOCTYPE svg PUBLIC "-//W3C//DTD SVG 1.1//EN" "http://www.w3.org/Graphics/SVG/1.1/DTD/svg11.dtd">
<svg version="1.1" id="Layer_1" xmlns="http://www.w3.org/2000/svg" xmlns:xlink="http://www.w3.org/1999/xlink" x="0px" y="0px"
	 viewBox="0 0 612 792" enable-background="new 0 0 612 792" xml:space="preserve">
<path fill="#FF6600" d="M576.4,194.3c7.5,7.5,13.7,17.1,18.5,29.4c5.5,12.3,7.5,23.9,7.5,34.2v447.2c0,10.3-3.4,19.1-10.9,26.7
	s-15.7,10.9-26.7,10.9h-521c-10.3,0-19.1-3.4-26.7-10.9c-6.8-7.5-10.3-16.4-10.3-26.7V84.2c0-10.3,3.4-19.1,10.9-26.7
	c6.8-7.5,15.7-10.9,26-10.9h348.1c10.3,0,21.9,2.7,34.2,7.5c12.3,5.5,22.6,11.6,29.4,18.5L576.4,194.3z M553.2,692.8v-398H391.8
	c-10.3,0-19.1-3.4-26.7-10.9c-7.5-7.5-10.9-15.7-10.9-26.7V96.5H56.8v596.3H553.2z M404.1,99.2v145.6h145.6
	c-2.7-7.5-5.5-13-8.2-15.7l-121-121C417.1,104.7,411.6,102,404.1,99.2z"/>
<path fill="#268AB3" d="M216.6,213.8c-5.7-5.7-13.2-9.4-21.7-9.4h-73.5c-8.5,0-16,2.8-21.7,9.4c-5.7,5.7-9.4,13.2-9.4,21.7V309
	c0,8.5,2.8,16,9.4,21.7c5.7,5.7,13.2,9.4,21.7,9.4H195c8.5,0,16-2.8,21.7-9.4c5.7-5.7,9.4-13.2,9.4-21.7v-73.5
	C226.1,227,222.3,219.4,216.6,213.8z M204.4,235.5V309c0,2.8-0.9,4.7-2.8,6.6c-1.9,1.9-3.8,2.8-6.6,2.8h-73.5
	c-2.8,0-4.7-0.9-6.6-2.8s-2.8-3.8-2.8-6.6v-73.5c0-2.8,0.9-4.7,2.8-6.6c1.9-1.9,3.8-2.8,6.6-2.8H195c2.8,0,4.7,0.9,6.6,2.8
	C203.5,230.7,204.4,232.6,204.4,235.5z"/>
<path fill="#FF6600" d="M510.2,339.2c-5.5-4.1-11.6-6.8-19.1-6.8h-96.3c-7.5,0-14.4,2.1-19.1,6.8c-5.5,4.1-8.2,9.6-8.2,16.4v285.1
	c0,6.2,2.7,11.6,8.2,15.7c5.5,4.1,11.6,6.8,19.1,6.8H491c7.5,0,14.4-2.1,19.1-6.8c5.5-4.1,8.2-9.6,8.2-15.7v-285
	C518.4,349.5,515.7,344,510.2,339.2z M499.2,355.7v285.1c0,2.1-0.7,3.4-2.1,4.8c-1.4,1.4-3.4,2.1-5.5,2.1h-96.3
	c-2.1,0-4.1-0.7-5.5-2.1c-1.4-1.4-2.7-2.7-2.7-4.8V355.7c0-2.1,0.7-3.4,2.1-4.8s3.4-2.1,5.5-2.1H491c2.1,0,4.1,0.7,5.5,2.1
	C498.6,352.2,499.2,353.6,499.2,355.7z"/>
<path fill="#268AB3" d="M216.6,537.1c-5.7-5.7-13.2-9.4-21.7-9.4h-73.5c-8.5,0-16,2.8-21.7,9.4c-5.7,5.7-9.4,13.2-9.4,21.7v73.5
	c0,8.5,2.8,16,9.4,21.7c5.7,5.7,13.2,9.4,21.7,9.4H195c8.5,0,16-2.8,21.7-9.4c5.7-5.7,9.4-13.2,9.4-21.7v-73.5
	C226.1,550.3,222.3,542.7,216.6,537.1z M204.4,558.7v73.5c0,2.8-0.9,4.7-2.8,6.6c-1.9,1.9-3.8,2.8-6.6,2.8h-73.5
	c-2.8,0-4.7-0.9-6.6-2.8c-1.9-1.9-2.8-3.8-2.8-6.6v-73.5c0-2.8,0.9-4.7,2.8-6.6c1.9-1.9,3.8-2.8,6.6-2.8H195c2.8,0,4.7,0.9,6.6,2.8
	C203.5,554,204.4,555.9,204.4,558.7z"/>
<g enable-background="new    ">
	<path fill="#FF6600" d="M198.7,260.9c0,0.9-0.9,2.8-1.9,3.8L160,301.5l-6.6,6.6c-0.9,0.9-1.9,1.9-3.8,1.9c-0.9,0-2.8-0.9-3.8-1.9
		l-6.6-6.6l-18.9-18.9c-0.9-0.9-1.9-1.9-1.9-3.8c0-0.9,0.9-2.8,1.9-3.8l6.6-6.6c0.9-0.9,1.9-1.9,3.8-1.9s2.8,0.9,3.8,1.9l15.1,15.1
		l33.9-33.9c0.9-0.9,1.9-1.9,3.8-1.9c0.9,0,2.8,0.9,3.8,1.9l6.6,6.6C197.8,258.1,198.7,260,198.7,260.9z"/>
</g>
<g>
	<path fill="#FF6600" d="M255.3,416.4c0,0.9-0.9,2.8-1.9,3.8L216.6,457l-6.6,6.6c-0.9,0.9-1.9,1.9-3.8,1.9c-0.9,0-2.8-0.9-3.8-1.9
		l-6.6-6.6l-18.9-18.9c-0.9-0.9-1.9-1.9-1.9-3.8s0.9-2.8,1.9-3.8l6.6-6.6c0.9-0.9,1.9-1.9,3.8-1.9s2.8,0.9,3.8,1.9l15.1,15.1
		l33.9-33.9c0.9-0.9,1.9-1.9,3.8-1.9c0.9,0,2.8,0.9,3.8,1.9l6.6,6.6C254.3,413.6,255.3,415.5,255.3,416.4z"/>
</g>
<g enable-background="new    ">
	<path fill="#FF6600" d="M198.7,581.4c0,0.9-0.9,2.8-1.9,3.8L160,622l-6.6,6.6c-0.9,0.9-1.9,1.9-3.8,1.9c-0.9,0-2.8-0.9-3.8-1.9
		l-6.6-6.6l-18.7-19c-0.9-0.9-1.9-1.9-1.9-3.8c0-1.9,0.9-2.8,1.9-3.8l6.6-6.6c0.9-0.9,1.9-1.9,3.8-1.9s2.8,0.9,3.8,1.9l15.1,15.1
		l33.9-33.9c0.9-0.9,1.9-1.9,3.8-1.9c0.9,0,2.8,0.9,3.8,1.9l6.6,6.6C197.8,578.5,198.7,580.4,198.7,581.4z"/>
</g>
<g id="YXyp5w.tif_1_" opacity="0.81">
	<g>
		<path fill="#FF6600" d="M248.7,498.4c-2.8-4.7-5.7-9.4-8.5-14.1c-1.9-2.8-3.8-5.7-4.7-8.5c-1.9-3.8-0.9-8.5,2.8-10.4
			c3.8-1.9,7.5-0.9,10.4,2.8c0.9,1.9,1.9,3.8,3.8,5.7c0.9,1.9,1.9,2.8,3.8,1.9s0.9-2.8,0-4.7c-1.9-2.8-2.8-5.7-4.7-8.5
			c-1.9-3.8-0.9-8.5,2.8-10.4c3.8-1.9,7.5-0.9,10.4,2.8c1.9,2.8,3.8,5.7,4.7,8.5c0.9,1.9,1.9,1.9,3.8,0.9c1.9-0.9,0.9-1.9,0.9-3.8
			c-0.9-1.9-2.8-4.7-3.8-6.6c-1.9-3.8-0.9-7.5,2.8-10.4c3.8-1.9,7.5-0.9,10.4,2.8c1.9,2.8,3.8,6.6,5.7,9.4c0.9,1.9,1.9,3.8,3.8,2.8
			c2.8-1.9,0.9-3.8,0-4.7s-0.9-1.9-1.9-2.8c-1.9-3.8-0.9-7.5,2.8-9.4c3.8-1.9,7.5-0.9,9.4,2.8c10.4,17,18.9,34.9,24.5,53.7
			c0.9,1.9,0.9,3.8,0.9,5.7c0.9,9.4-1.9,16-10.4,19.8c-6.6,3.8-13.2,7.5-19.8,11.3c-7.5,4.7-16,3.8-23.6-0.9
			c-16-11.3-32-22.6-47.1-33c-4.7-2.8-5.7-8.5-2.8-12.3c2.8-3.8,7.5-4.7,12.3-1.9C240.2,492.8,244,495.6,248.7,498.4
			C248.7,499.4,248.7,499.4,248.7,498.4z M269.4,498.4c-0.9,0.9-1.9,0.9-1.9,1.9c0,0.9,0,1.9,0.9,2.8c4.7,5.7,10.4,11.3,15.1,17
			c0.9,0.9,2.8,1.9,3.8,0.9s0-2.8,0-3.8c-4.7-5.7-10.4-11.3-15.1-17.9C271.3,499.4,270.4,499.4,269.4,498.4z M309,507.8
			c0-0.9,0-1.9-0.9-1.9c-2.8-6.6-4.7-14.1-7.5-20.7c-0.9-1.9-0.9-2.8-2.8-1.9s-1.9,1.9-0.9,3.8c1.9,5.7,3.8,12.3,5.7,17.9
			c0.9,1.9,0.9,2.8,1.9,4.7c0,0.9,1.9,0.9,1.9,0.9C308.1,509.7,308.1,508.8,309,507.8z M284.5,490.9c-1.9,0-2.8,1.9-1.9,3.8
			c3.8,6.6,7.5,13.2,11.3,19.8c0.9,0.9,1.9,1.9,2.8,0.9c0.9-0.9,0.9-2.8,0.9-3.8c-3.8-6.6-7.5-13.2-11.3-19.8
			C286.4,491.8,285.5,490.9,284.5,490.9z"/>
		<path fill="#268AB3" d="M257.2,361.8c20.7-1.9,32,10.4,29.2,31.1c-4.7,0-10.4,0-16,0c0-2.8,0-5.7,0-8.5c0-4.7-2.8-7.5-7.5-7.5
			c-1.9,0-3.8,0-5.7,0C257.2,373.1,257.2,367.4,257.2,361.8z"/>
		<path fill="#268AB3" d="M172.3,362.7c0,5.7,0,10.4,0,16c-1.9,0-3.8,0-5.7,0c-4.7,0-7.5,2.8-7.5,7.5c0,2.8,0,4.7,0,7.5
			c-5.7,0-10.4,0-16,0C140.3,373.1,152.6,359.9,172.3,362.7z"/>
		<path fill="#268AB3" d="M172.3,506c-18.9,2.8-32-10.4-29.2-27.3c4.7,0,10.4,0,16,0c0,1.9,0,2.8,0,4.7c0,3.8,2.8,6.6,6.6,6.6h0.9
			c5.7,0,5.7,0,5.7,6.6C172.3,499.4,172.3,503.1,172.3,506z"/>
		<path fill="#268AB3" d="M186.5,361.8c7.5,0,14.1,0,21.7,0c0,5.7,0,10.4,0,16c-7.5,0-14.1,0-21.7,0
			C186.5,373.1,186.5,367.4,186.5,361.8z"/>
		<path fill="#268AB3" d="M271.3,407c5.7,0,10.4,0,16,0c0,7.5,0,15.1,0,21.7c-5.7,0-10.4,0-16,0C271.3,422.1,271.3,414.5,271.3,407z
			"/>
		<path fill="#268AB3" d="M158.2,429.6c-5.7,0-10.4,0-16,0c0-7.5,0-15.1,0-21.7c5.7,0,10.4,0,16,0
			C158.2,414.5,158.2,422.1,158.2,429.6z"/>
		<path fill="#268AB3" d="M208.2,489.9c0,5.7,0,10.4,0,16c-7.5,0-14.1,0-22.6,0c0-4.7,0-9.4,0-15.1l0.9-0.9
			C194,489.9,200.6,489.9,208.2,489.9z"/>
		<path fill="#268AB3" d="M221.4,377.8c0-5.7,0-10.4,0-16c7.5,0,14.1,0,21.7,0c0,5.7,0,10.4,0,16
			C236.4,377.8,228.9,377.8,221.4,377.8z"/>
		<path fill="#268AB3" d="M158.2,464.5c-5.7,0-10.4,0-16,0c0-7.5,0-14.1,0-21.7c5.7,0,10.4,0,16,0
			C158.2,450.4,158.2,457,158.2,464.5z"/>
	</g>
</g>
</svg>
