<?xml version="1.0" encoding="utf-8"?>
<!-- Generator: Adobe Illustrator 17.1.0, SVG Export Plug-In . SVG Version: 6.00 Build 0)  -->
<!DOCTYPE svg PUBLIC "-//W3C//DTD SVG 1.1//EN" "http://www.w3.org/Graphics/SVG/1.1/DTD/svg11.dtd">
<svg version="1.1" id="Layer_1" xmlns="http://www.w3.org/2000/svg" xmlns:xlink="http://www.w3.org/1999/xlink" x="0px" y="0px"
	 viewBox="0 0 89.5 104.2" enable-background="new 0 0 89.5 104.2" xml:space="preserve">
<path opacity="0.81" fill="#268AB3" d="M70.4,47.6v3.6c0,0.3-0.1,0.5-0.3,0.7c-0.2,0.2-0.4,0.3-0.7,0.3H39.8c-0.3,0-0.5-0.1-0.7-0.3
	c-0.2-0.2-0.3-0.4-0.3-0.7v-3.6c0-0.3,0.1-0.5,0.3-0.7c0.2-0.2,0.4-0.3,0.7-0.3h29.6c0.3,0,0.5,0.1,0.7,0.3
	C70.3,47.1,70.4,47.3,70.4,47.6z"/>
<path opacity="0.81" fill="#268AB3" d="M70.4,64.6v3.6c0,0.3-0.1,0.5-0.3,0.7c-0.2,0.2-0.4,0.3-0.7,0.3H39.8c-0.3,0-0.5-0.1-0.7-0.3
	c-0.2-0.2-0.3-0.4-0.3-0.7v-3.6c0-0.3,0.1-0.5,0.3-0.7c0.2-0.2,0.4-0.3,0.7-0.3h29.6c0.3,0,0.5,0.1,0.7,0.3
	C70.3,64.1,70.4,64.3,70.4,64.6z"/>
<path opacity="0.81" fill="#268AB3" d="M70.4,81.6v3.6c0,0.3-0.1,0.5-0.3,0.7c-0.2,0.2-0.4,0.3-0.7,0.3H39.8c-0.3,0-0.5-0.1-0.7-0.3
	c-0.2-0.2-0.3-0.4-0.3-0.7v-3.6c0-0.3,0.1-0.5,0.3-0.7c0.2-0.2,0.4-0.3,0.7-0.3h29.6c0.3,0,0.5,0.1,0.7,0.3
	C70.3,81.1,70.4,81.3,70.4,81.6z"/>
<path fill="#268AB3" d="M84.3,22.6c1.1,1.1,2,2.5,2.7,4.3c0.8,1.8,1.1,3.5,1.1,5v65.4c0,1.5-0.5,2.8-1.6,3.9
	c-1.1,1.1-2.3,1.6-3.9,1.6H6.4c-1.5,0-2.8-0.5-3.9-1.6C1.5,100.1,1,98.8,1,97.3V6.5c0-1.5,0.5-2.8,1.6-3.9C3.6,1.5,4.9,1,6.4,1h50.9
	c1.5,0,3.2,0.4,5,1.1c1.8,0.8,3.3,1.7,4.3,2.7L84.3,22.6z M80.9,95.5V37.3H57.3c-1.5,0-2.8-0.5-3.9-1.6c-1.1-1.1-1.6-2.3-1.6-3.9
	V8.3H8.3v87.2H80.9z M59.1,8.7v21.3h21.3c-0.4-1.1-0.8-1.9-1.2-2.3L61.5,10C61,9.5,60.2,9.1,59.1,8.7z"/>
<path fill="#FF6600" d="M30,41.5c-0.6-0.6-1.4-1-2.3-1h-7.8c-0.9,0-1.7,0.3-2.3,1c-0.6,0.6-1,1.4-1,2.3v7.8c0,0.9,0.3,1.7,1,2.3
	c0.6,0.6,1.4,1,2.3,1h7.8c0.9,0,1.7-0.3,2.3-1c0.6-0.6,1-1.4,1-2.3v-7.8C31,42.9,30.6,42.1,30,41.5z M28.7,43.8v7.8
	c0,0.3-0.1,0.5-0.3,0.7c-0.2,0.2-0.4,0.3-0.7,0.3h-7.8c-0.3,0-0.5-0.1-0.7-0.3c-0.2-0.2-0.3-0.4-0.3-0.7v-7.8c0-0.3,0.1-0.5,0.3-0.7
	c0.2-0.2,0.4-0.3,0.7-0.3h7.8c0.3,0,0.5,0.1,0.7,0.3C28.6,43.3,28.7,43.5,28.7,43.8z"/>
<path fill="#FF6600" d="M30,58.8c-0.6-0.6-1.4-1-2.3-1h-7.8c-0.9,0-1.7,0.3-2.3,1c-0.6,0.6-1,1.4-1,2.3v7.8c0,0.9,0.3,1.7,1,2.3
	c0.6,0.6,1.4,1,2.3,1h7.8c0.9,0,1.7-0.3,2.3-1c0.6-0.6,1-1.4,1-2.3v-7.8C31,60.2,30.6,59.4,30,58.8z M28.7,61.1v7.8
	c0,0.3-0.1,0.5-0.3,0.7c-0.2,0.2-0.4,0.3-0.7,0.3h-7.8c-0.3,0-0.5-0.1-0.7-0.3c-0.2-0.2-0.3-0.4-0.3-0.7v-7.8c0-0.3,0.1-0.5,0.3-0.7
	c0.2-0.2,0.4-0.3,0.7-0.3h7.8c0.3,0,0.5,0.1,0.7,0.3C28.6,60.6,28.7,60.8,28.7,61.1z"/>
<path fill="#FF6600" d="M30,75.8c-0.6-0.6-1.4-1-2.3-1h-7.8c-0.9,0-1.7,0.3-2.3,1c-0.6,0.6-1,1.4-1,2.3v7.8c0,0.9,0.3,1.7,1,2.3
	c0.6,0.6,1.4,1,2.3,1h7.8c0.9,0,1.7-0.3,2.3-1c0.6-0.6,1-1.4,1-2.3v-7.8C31,77.2,30.6,76.4,30,75.8z M28.7,78.1v7.8
	c0,0.3-0.1,0.5-0.3,0.7c-0.2,0.2-0.4,0.3-0.7,0.3h-7.8c-0.3,0-0.5-0.1-0.7-0.3c-0.2-0.2-0.3-0.4-0.3-0.7v-7.8c0-0.3,0.1-0.5,0.3-0.7
	c0.2-0.2,0.4-0.3,0.7-0.3h7.8c0.3,0,0.5,0.1,0.7,0.3C28.6,77.6,28.7,77.8,28.7,78.1z"/>
<g>
	<path fill="#268AB3" d="M28.1,46.5c0,0.1-0.1,0.3-0.2,0.4L24,50.8l-0.7,0.7c-0.1,0.1-0.2,0.2-0.4,0.2c-0.1,0-0.3-0.1-0.4-0.2
		l-0.7-0.7l-2-2c-0.1-0.1-0.2-0.2-0.2-0.4c0-0.1,0.1-0.3,0.2-0.4l0.7-0.7c0.1-0.1,0.2-0.2,0.4-0.2s0.3,0.1,0.4,0.2l1.6,1.6l3.6-3.6
		c0.1-0.1,0.2-0.2,0.4-0.2c0.1,0,0.3,0.1,0.4,0.2l0.7,0.7C28,46.2,28.1,46.4,28.1,46.5z"/>
</g>
<g>
	<path fill="#268AB3" d="M28.1,63.5c0,0.1-0.1,0.3-0.2,0.4L24,67.8l-0.7,0.7c-0.1,0.1-0.2,0.2-0.4,0.2c-0.1,0-0.3-0.1-0.4-0.2
		l-0.7-0.7l-2-2c-0.1-0.1-0.2-0.2-0.2-0.4s0.1-0.3,0.2-0.4l0.7-0.7c0.1-0.1,0.2-0.2,0.4-0.2s0.3,0.1,0.4,0.2l1.6,1.6l3.6-3.6
		c0.1-0.1,0.2-0.2,0.4-0.2c0.1,0,0.3,0.1,0.4,0.2l0.7,0.7C28,63.2,28.1,63.4,28.1,63.5z"/>
</g>
</svg>
