<?xml version="1.0" encoding="utf-8"?>
<!-- Generator: Adobe Illustrator 17.1.0, SVG Export Plug-In . SVG Version: 6.00 Build 0)  -->
<!DOCTYPE svg PUBLIC "-//W3C//DTD SVG 1.1//EN" "http://www.w3.org/Graphics/SVG/1.1/DTD/svg11.dtd">
<svg version="1.1" id="Layer_1" xmlns="http://www.w3.org/2000/svg" xmlns:xlink="http://www.w3.org/1999/xlink" x="0px" y="0px"
	 viewBox="0 0 612 792" enable-background="new 0 0 612 792" xml:space="preserve">
<path fill="#FF6600" d="M577.8,197.7c7.5,7.5,13.7,17.1,18.5,29.4c5.5,12.3,7.5,23.9,7.5,34.2v447.2c0,10.3-3.4,19.1-10.9,26.7
	c-7.5,7.5-15.7,10.9-26.7,10.9H45.1c-10.3,0-19.1-3.4-26.7-10.9c-7.5-7.5-10.9-15.7-10.9-26.7V87.6c0-10.3,3.4-19.1,10.9-26.7
	S34.2,50,45.1,50h348.1c10.3,0,21.9,2.7,34.2,7.5c12.3,5.5,22.6,11.6,29.4,18.5L577.8,197.7z M554.6,696.2V298.9H393.2
	c-10.3,0-19.1-3.4-26.7-10.9c-7.5-7.5-10.9-15.7-10.9-26.7V99.9H57.4v596.3H554.6z M405.5,102.7v145.6h145.6
	c-2.7-7.5-5.5-13-8.2-15.7l-121.7-121C418.5,108.1,413,105.4,405.5,102.7"/>
<path fill="#008AB5" d="M501.2,424c6.2,13.7,8.9,28.7,8.9,43.8s-2.7,30.1-8.9,43.8s-14.4,26-23.9,36.2
	c-10.3,10.3-21.9,17.8-36.2,23.9c-13.7,6.2-28.7,8.9-43.8,8.9H208.6c-15,0-30.1-2.7-43.8-8.9c-13.7-6.2-26-14.4-36.2-23.9
	c-10.3-10.3-18.5-21.9-23.9-36.2c-5.5-14.4-8.9-28.7-8.9-43.8c0-15,2.7-30.1,8.9-43.8s14.4-26,23.9-36.2s21.9-18.5,36.2-23.9
	c13.7-6.2,28.7-8.9,43.8-8.9h188.7c15,0,30.1,2.7,43.8,8.9c13.7,6.2,26,14.4,36.2,23.9C486.9,398.1,495.1,409.7,501.2,424
	 M292,502.7c4.8-10.9,6.8-22.6,6.8-34.9s-2.1-23.9-6.8-34.9c-4.8-10.9-10.9-20.5-19.1-28.7c-8.2-8.2-17.8-14.4-28.7-19.1
	c-10.9-4.8-22.6-6.8-34.9-6.8c-12.3,0-23.9,2.1-34.9,6.8c-10.9,4.8-20.5,10.9-28.7,19.1c-8.2,8.2-14.4,17.8-19.1,28.7
	c-4.8,10.9-6.8,22.6-6.8,34.9s2.1,23.9,6.8,34.9c4.8,10.9,10.9,20.5,19.1,28.7c8.2,8.2,17.8,14.4,28.7,19.1
	c10.9,4.8,22.6,6.8,34.9,6.8c12.3,0,23.9-2.7,34.9-6.8c10.9-4.8,20.5-10.9,28.7-19.1C280.4,523.9,287.2,513.6,292,502.7
	 M480.7,502.7c4.8-10.9,6.8-22.6,6.8-34.9s-2.1-23.9-6.8-34.9c-4.8-10.9-10.9-20.5-19.1-28.7c-8.2-8.2-17.8-14.4-28.7-19.1
	c-10.9-4.8-22.6-6.8-34.9-6.8H276.3c14.4,10.9,25.3,23.9,33.5,39.7s12.3,32.8,12.3,50.6s-4.1,34.9-12.3,50.6s-19.1,28.7-33.5,39.7
	h121c12.3,0,23.9-2.7,34.9-6.8c10.9-4.8,20.5-10.9,28.7-19.1C469.1,523.9,475.9,513.6,480.7,502.7"/>
<path fill="#FF6600" d="M412.3,414.5l-19.1,56.1c-2.1,6.8-4.8,14.4-6.8,21.2c-2.1-6.8-4.1-13.7-6.8-21.9l-17.8-56.1h-26L374,530
	h22.6l41.7-116.2L412.3,414.5L412.3,414.5z"/>
<polygon fill="#FF6600" points="244.8,436.3 244.8,414.5 177.8,414.5 177.8,530.7 201.7,530.7 201.7,482.8 242.1,482.8 242.1,461 
	201.7,461 201.7,436.3 "/>
</svg>
