<?xml version="1.0" encoding="utf-8"?>
<!-- Generator: Adobe Illustrator 17.1.0, SVG Export Plug-In . SVG Version: 6.00 Build 0)  -->
<!DOCTYPE svg PUBLIC "-//W3C//DTD SVG 1.1//EN" "http://www.w3.org/Graphics/SVG/1.1/DTD/svg11.dtd">
<svg version="1.1" id="Layer_1" xmlns="http://www.w3.org/2000/svg" xmlns:xlink="http://www.w3.org/1999/xlink" x="0px" y="0px"
	 viewBox="0 0 612 792" enable-background="new 0 0 612 792" xml:space="preserve">
<path fill="#008AB5" d="M578.5,197.7c7.5,7.5,13.7,17.1,18.5,29.4c5.5,12.3,7.5,23.9,7.5,34.2v447.2c0,10.3-3.4,19.1-10.9,26.7
	c-7.5,7.5-15.7,10.9-26.7,10.9H46.5c-10.3,0-19.1-3.4-26.7-10.9c-7.5-7.5-10.9-15.7-10.9-26.7V87.6c0-10.3,3.4-19.1,10.9-26.7
	C27.4,54.1,35.6,50,46.5,50h348.1c10.3,0,21.9,2.7,34.2,7.5c12.3,5.5,22.6,11.6,29.4,18.5L578.5,197.7z M555.2,696.2V298.9H393.9
	c-10.3,0-19.1-3.4-26.7-10.9c-7.5-7.5-10.9-15.7-10.9-26.7V99.9H58.8v596.3H555.2z M406.2,102.7v145.6h145.6
	c-2.7-7.5-5.5-13-8.2-15.7l-121-121C419.2,108.1,413.7,105.4,406.2,102.7"/>
<path d="M396.6,357c1.4,0,2.7,0,4.1,0.7C398.7,357.7,397.3,357.7,396.6,357"/>
<path d="M415.1,347.5c2.1,0.7,4.1,1.4,5.5,2.1c-1.4-0.7-2.7-1.4-4.1-1.4c-2.1-0.7-4.8-1.4-6.8-2.1c-2.7-0.7-4.8-1.4-7.5-1.4
	C406.2,344.7,410.3,345.4,415.1,347.5"/>
<path d="M400,344c-1.4,0-2.7,0-3.4-0.7C397.3,343.3,398.7,343.3,400,344"/>
<path fill="#FF6600" d="M475.2,391.9c-3.4-9.6-8.9-17.8-15.7-25.3c-4.8-5.5-10.9-9.6-17.1-13.7l-1.4-0.7c-2.1-0.7-4.1-2.1-6.2-2.7
	c-4.8-2.1-8.9-3.4-13.7-4.1l-2.1-0.7c-1.4,0-2.7-0.7-4.1-0.7c-2.1,0-4.1-0.7-6.8-0.7h-1.4c-9.6,0-19.1,1.4-28,4.8
	c-5.5,2.1-10.9,4.8-16.4,8.9c-3.4,2.1-6.2,4.8-8.9,6.8l-123,114.9L162,538.2c-7.5,6.8-13,15-17.1,24.6s-6.2,18.5-6.2,28
	s1.4,19.1,4.8,28c3.4,9.6,8.9,17.8,15.7,25.3s15,13,24.6,17.1c8.9,3.4,17.1,5.5,26,6.2h2.1c9.6,0,19.1-1.4,28-4.8
	c9.6-3.4,17.8-8.9,25.3-15.7l70.4-61.5l121.7-113.5c2.7-2.1,4.8-4.8,7.5-8.2c4.1-5.5,7.5-10.9,9.6-16.4c4.1-8.9,6.2-18.5,6.2-28
	C480,411,478.7,401.5,475.2,391.9 M443.1,460.3l-4.8-4.1L328.2,558.1l-50.6,42.4l-30.1,28.7c-4.8,4.8-10.3,8.2-16.4,10.3
	c-6.2,2.1-12.3,3.4-19.1,3.4h-1.4c-6.2,0-11.6-1.4-17.1-4.1c-6.2-2.7-11.6-6.2-16.4-10.9c-4.8-4.8-8.2-10.3-10.3-16.4
	c-2.1-6.2-3.4-12.3-3.4-19.1c0-6.2,1.4-12.3,4.1-18.5c2.7-6.2,6.2-11.6,10.9-16.4l28-26.7l50.6-42.4l111.5-103.3l-4.1-4.1l4.8,3.4
	l1.4-1.4c4.8-4.8,10.3-8.2,16.4-10.3s12.3-2.7,19.1-2.7l-1.4-5.5h-2.1v4.8c11.6,0.7,5.5,0.7,7.5,0.7c1.4,0,3.4,0.7,4.8,0.7
	c2.7,0.7,6.8,1.4,9.6,2.7c6.2,2.7,11.6,6.2,16.4,10.9c4.8,4.8,8.2,10.3,10.3,16.4c2.1,6.2,3.4,12.3,3.4,19.1
	c0,6.2-1.4,12.3-4.1,18.5s-6.2,12.3-10.9,17.1L443.1,460.3L443.1,460.3z"/>
<path fill="#008AB5" d="M207.2,561.5c-19.1,0-32.1,15-32.1,36.2c0,20.5,13,34.9,31.5,34.9c22.6,0,32.1-18.5,32.1-36.2
	C238.6,575.2,225.7,561.5,207.2,561.5 M206.5,621c-12.3,0-17.8-12.3-17.8-23.9c0-12.3,5.5-24.6,18.5-24.6
	c12.3,0,17.8,12.3,17.8,23.9C225,608.7,219.5,621,206.5,621"/>
<g opacity="0.45">
	<g>
		<g>
			<g>
				<g>
					<defs>
						<rect id="SVGID_1_" x="409.6" y="476.7" width="13" height="67.7"/>
					</defs>
					<clipPath id="SVGID_2_">
						<use xlink:href="#SVGID_1_"  overflow="visible"/>
					</clipPath>
					<rect x="409.6" y="476.7" clip-path="url(#SVGID_2_)" fill="#010001" width="13" height="67.7"/>
				</g>
			</g>
		</g>
	</g>
</g>
<path fill="#008AB5" d="M319.3,505.4c0,5.5,0,10.3,0,15c-2.1-3.4-4.1-6.8-6.2-10.9l-20.5-32.8h-12.3v67.7h12.3V515
	c0-6.2,0-10.9,0-15.7c2.1,3.4,4.1,7.5,7.5,12.3l20.5,32.8h11.6v-67.7H320C319.3,476.7,319.3,505.4,319.3,505.4z"/>
<g opacity="0.45">
	<g>
		<g>
			<g>
				<g>
					<defs>
						<rect id="SVGID_3_" x="276.9" y="389.8" width="51.3" height="67.7"/>
					</defs>
					<clipPath id="SVGID_4_">
						<use xlink:href="#SVGID_3_"  overflow="visible"/>
					</clipPath>
					<polygon clip-path="url(#SVGID_4_)" fill="#010001" points="328.2,389.8 276.9,389.8 276.9,401.5 296.1,401.5 296.1,457.5 
						309.1,457.5 309.1,401.5 328.2,401.5 					"/>
				</g>
			</g>
		</g>
	</g>
</g>
<g opacity="0.45">
	<g>
		<g>
			<g>
				<g>
					<defs>
						<rect id="SVGID_5_" x="289.2" y="563.5" width="39.7" height="67.7"/>
					</defs>
					<clipPath id="SVGID_6_">
						<use xlink:href="#SVGID_5_"  overflow="visible"/>
					</clipPath>
					<path clip-path="url(#SVGID_6_)" fill="#010001" d="M296.1,563.5h-1.4c-3.4,0-5.5,2.7-5.5,5.5v56.1c0,3.4,2.7,5.5,5.5,5.5h28
						c3.4,0,5.5-2.7,5.5-5.5l0,0c0-3.4-2.7-5.5-5.5-5.5h-15c-3.4,0-5.5-2.7-5.5-5.5v-44.4C302.2,566.3,299.5,563.5,296.1,563.5"/>
				</g>
			</g>
		</g>
	</g>
</g>
<polygon fill="#008AB5" points="400,425.4 424.6,425.4 424.6,414.5 400,414.5 400,399.4 426,399.4 426,387.8 387.7,387.8 
	387.7,454.8 427.4,454.8 427.4,443.2 400,443.2 "/>
<g opacity="0.45">
	<g>
		<g>
			<g>
				<g>
					<defs>
						<rect id="SVGID_7_" x="189.4" y="388.5" width="43.8" height="67.7"/>
					</defs>
					<clipPath id="SVGID_8_">
						<use xlink:href="#SVGID_7_"  overflow="visible"/>
					</clipPath>
					<path clip-path="url(#SVGID_8_)" fill="#010001" d="M223.6,419.9c4.8-3.4,7.5-8.2,7.5-13.7s-2.1-9.6-6.2-13
						c-4.1-3.4-10.3-4.8-18.5-4.8c-5.5,0-10.9,0.7-15,1.4l-2.1,0.7v65h2.1c2.1,0,6.2,0.7,13,0.7c10.9,0,18.5-2.1,23.2-6.2
						c4.1-4.1,6.2-8.9,6.2-14.4C233.2,428.1,228.4,422.7,223.6,419.9 M206.5,415.1h-4.8v-15.7c1.4,0,2.7,0,4.8,0
						c11.6,0,11.6,6.2,11.6,8.2C218.1,412.4,213.3,415.1,206.5,415.1 M206.5,445.2c-2.1,0-3.4,0-4.1,0v-19.1h4.1
						c4.1,0,13.7,0.7,13.7,9.6C220.2,443.9,212.7,445.2,206.5,445.2"/>
				</g>
			</g>
		</g>
	</g>
</g>
<g opacity="0.45">
	<g>
		<g>
			<g>
				<g>
					<defs>
						<rect id="SVGID_9_" x="389.1" y="564.2" width="50.6" height="67.7"/>
					</defs>
					<clipPath id="SVGID_10_">
						<use xlink:href="#SVGID_9_"  overflow="visible"/>
					</clipPath>
					<path clip-path="url(#SVGID_10_)" fill="#010001" d="M426.7,603.9c0,11.6-4.1,17.8-13,17.8c-8.2,0-12.3-6.2-12.3-17.8v-39h-13
						v39c0,25.3,15.7,28.7,24.6,28.7c16.4,0,26-10.9,26-29.4v-39h-13C426.7,564.2,426.7,603.9,426.7,603.9z"/>
				</g>
			</g>
		</g>
	</g>
</g>
<g opacity="0.45">
	<g>
		<g>
			<g>
				<g>
					<defs>
						<rect id="SVGID_11_" x="185.3" y="473.3" width="42.4" height="69.1"/>
					</defs>
					<clipPath id="SVGID_12_">
						<use xlink:href="#SVGID_11_"  overflow="visible"/>
					</clipPath>
					<path clip-path="url(#SVGID_12_)" fill="#010001" d="M210.6,501.3c-9.6-3.4-10.9-6.2-10.9-9.6s2.7-6.8,9.6-6.8
						c4.8,0,8.2,1.4,10.9,2.7l2.7,1.4l2.7-11.6l-1.4-0.7c-2.1-1.4-6.8-3.4-15-3.4c-13,0-22.6,8.2-22.6,19.1
						c0,8.9,6.2,15.7,17.8,19.8c8.9,3.4,10.3,6.2,10.3,10.3c0,5.5-4.1,8.2-10.9,8.2c-4.8,0-9.6-1.4-13-3.4l-2.1-2.1l-3.4,10.9
						l1.4,0.7c4.1,2.7,10.9,4.1,17.1,4.1c12.3,0,23.9-6.2,23.9-20.5C227.7,509.5,219.5,504.7,210.6,501.3"/>
				</g>
			</g>
		</g>
	</g>
</g>
</svg>
