[
{
        "respuestas": [
            {
                "t13respuesta": "Domingo",
                "t17correcta": "0"
            },
            {
                "t13respuesta": "Lunes",
                "t17correcta": "1"
            },
            {
                "t13respuesta": "Martes",
                "t17correcta": "2"
            },
            {
                "t13respuesta": "Mi&eacute;rcoles",
                "t17correcta": "3"
            },
            {
                "t13respuesta": "Jueves",
                "t17correcta": "4"
            },
            {
                "t13respuesta": "Viernes",
                "t17correcta": "5"
            },
            {
                "t13respuesta": "S&aacute;bado",
                "t17correcta": "6"
            }
        ],
        "preguntas" : [
            {
                "c03id_tipo_pregunta": "13",
                "t11pregunta": "Semana 1",
                "correcta"  : "1"
            },
            {
                "c03id_tipo_pregunta": "13",
                "t11pregunta": "Semana 2",
                "correcta"  : "0,6"
            },
            {
                "c03id_tipo_pregunta": "13",
                "t11pregunta": "Semana 3",
                "correcta"  : "5"
            },
            {
                "c03id_tipo_pregunta": "13",
                "t11pregunta": "Semana 4",
                "correcta"  : "4"
            },
            {
                "c03id_tipo_pregunta": "13",
                "t11pregunta": "Semana 5",
                "correcta"  : "3"
            }
        ],
        "pregunta": {
            "c03id_tipo_pregunta": "13",
            "t11pregunta": "<p>Pregunta Opci&oacute;n Matriz<\/p>",
            "descripcion": "Calendario",
            "variante": "calendario",
            "evaluable"  : true
        }
    }
]